…
**4. Elements:** `element_*()`

Inspired by ggplot2, elements are a way to apply styling that is purely
aesthetic in nature, such as how a column should be aligned
(`element_align`). These are passed through plan or structure objects.

# Putting it all together

Let’s look at the CDISC pilot demographics table as an example. Suppose
we’ve derived our analysis results data in the required format:

``` r
print(demog_dat, n=40)
#> # A tibble: 346 x 7
#>    rowlbl1 rowlbl2   column               param    value  ord1  ord2
#>    <chr>   <chr>     <chr>                <chr>    <dbl> <dbl> <dbl>
#>  1 Age (y) n         Placebo              n       86         1     1
#>  2 Age (y) n         Xanomeline Low Dose  n       84         1     1
#>  3 Age (y) n         Xanomeline High Dose n       84         1     1
#>  4 Age (y) n         Total                n      254         1     1
#>  5 Age (y) n         p                    p        0.593     1     1
#>  6 Age (y) Mean      Placebo              Mean    75.2       1     2
#>  7 Age (y) Mean      Xanomeline Low Dose  Mean    75.7       1     2
#>  8 Age (y) Mean      Xanomeline High Dose Mean    74.4       1     2
#>  9 Age (y) Mean      Total                Mean    75.1       1     2
#> 10 Age (y) Mean      p                    p       NA         1     2
#> 11 Age (y) SD        Placebo              SD       8.59      1     3
#> 12 Age (y) SD        Xanomeline Low Dose  SD       8.29      1     3
#> 13 Age (y) SD        Xanomeline High Dose SD       7.89      1     3
#> 14 Age (y) SD        Total                SD       8.25      1     3
#> 15 Age (y) SD        p                    p       NA         1     3
#> 16 Age (y) Median    Placebo              Median  76         1     4
#> 17 Age (y) Median    Xanomeline Low Dose  Median  77.5       1     4
#> 18 Age (y) Median    Xanomeline High Dose Median  76         1     4
#> 19 Age (y) Median    Total                Median  77         1     4
#> 20 Age (y) Median    p                    p       NA         1     4
#> 21 Age (y) Min       Placebo              Min     52         1     5
#> 22 Age (y) Min       Xanomeline Low Dose  Min     51         1     5
#> 23 Age (y) Min       Xanomeline High Dose Min     56         1     5
#> 24 Age (y) Min       Total                Min     51         1     5
#> 25 Age (y) Min       p                    p       NA         1     5
#> 26 Age (y) Max       Placebo              Max     89         1     6
#> 27 Age (y) Max       Xanomeline Low Dose  Max     88         1     6
#> 28 Age (y) Max       Xanomeline High Dose Max     88         1     6
#> 29 Age (y) Max       Total                Max     89         1     6
#> 30 Age (y) Max       p                    p       NA         1     6
#> 31 Age (y) <65 yrs   Placebo              n       14         1     7
#> 32 Age (y) <65 yrs   Xanomeline Low Dose  n        8         1     7
#> 33 Age (y) <65 yrs   Xanomeline High Dose n       11         1     7
#> 34 Age (y) <65 yrs   Total                n       33         1     7
#> 35 Age (y) <65 yrs   Placebo              pct     16.3       1     7
#> 36 Age (y) <65 yrs   Xanomeline Low Dose  pct      9.52      1     7
#> 37 Age (y) <65 yrs   Xanomeline High Dose pct     13.1       1     7
#> 38 Age (y) <65 yrs   Total                pct     13.0       1     7
#> 39 Age (y) <65 yrs   p                    p        0.144     1     7
#> 40 Age (y) 65-80 yrs Placebo              n       42         1     8
#> # ... with 306 more rows
```
…
