…
The first step in preparing the data for {tfrmt} is calling
[`shuffle_card()`](https://gsk-biostatistics.github.io/tfrmt/dev/reference/shuffle_card.md)
which performs general operations to get the results in a tidy data
frame without list-columns and extra metadata.

``` r
ard_demog_shuffled <- ard_demog |>
  shuffle_card()

ard_demog_shuffled
#> # A tibble: 21 × 8
#>    ARM           AGEGR1 AGE   context stat_variable stat_name stat_label    stat
#>    <chr>         <chr>  <chr> <chr>   <chr>         <chr>     <chr>        <dbl>
#>  1 Placebo       >64    NA    catego… AGEGR1        p         %           0.837 
#>  2 Placebo       18-64  NA    catego… AGEGR1        p         %           0.163 
#>  3 Placebo       NA     Over… contin… AGE           mean      Mean       75.2   
#>  4 Placebo       NA     Over… contin… AGE           sd        SD          8.59  
#>  5 Xanomeline H… >64    NA    catego… AGEGR1        p         %           0.869 
#>  6 Xanomeline H… 18-64  NA    catego… AGEGR1        p         %           0.131 
#>  7 Xanomeline H… NA     Over… contin… AGE           mean      Mean       74.4   
#>  8 Xanomeline H… NA     Over… contin… AGE           sd        SD          7.89  
#>  9 Xanomeline L… >64    NA    catego… AGEGR1        p         %           0.905 
#> 10 Xanomeline L… 18-64  NA    catego… AGEGR1        p         %           0.0952
#> # ℹ 11 more rows
```

Note that the variables have been transformed wide and renamed. NULL
values have also been filled with “Overall ”.

For our {tfrmt} table, `AGEGR1` and `AGE` need to be combined into a
single variable. We can use the
[`prep_combine_vars()`](https://gsk-biostatistics.github.io/tfrmt/dev/reference/prep_combine_vars.md)
helper for this:

``` r
ard_demog_shuffled <- ard_demog_shuffled |>
  prep_combine_vars(vars = c("AGEGR1", "AGE"))

ard_demog_shuffled
#> # A tibble: 21 × 7
#>    ARM         variable_level context stat_variable stat_name stat_label    stat
#>    <chr>       <chr>          <chr>   <chr>         <chr>     <chr>        <dbl>
#>  1 Placebo     >64            catego… AGEGR1        p         %           0.837 
#>  2 Placebo     18-64          catego… AGEGR1        p         %           0.163 
#>  3 Placebo     Overall AGE    contin… AGE           mean      Mean       75.2   
#>  4 Placebo     Overall AGE    contin… AGE           sd        SD          8.59  
#>  5 Xanomeline… >64            catego… AGEGR1        p         %           0.869 
#>  6 Xanomeline… 18-64          catego… AGEGR1        p         %           0.131 
#>  7 Xanomeline… Overall AGE    contin… AGE           mean      Mean       74.4   
#>  8 Xanomeline… Overall AGE    contin… AGE           sd        SD          7.89  
#>  9 Xanomeline… >64            catego… AGEGR1        p         %           0.905 
#> 10 Xanomeline… 18-64          catego… AGEGR1        p         %           0.0952
#> # ℹ 11 more rows
```

Next, we want to make a row label column that is the variable level for
categorical `AGEGR1` and the stat label for continuous `AGE`. We can use
the
[`prep_label()`](https://gsk-biostatistics.github.io/tfrmt/dev/reference/prep_label.md)
helper for this:

``` r
ard_demog_shuffled <- ard_demog_shuffled |>
  prep_label()

ard_demog_shuffled
#> # A tibble: 21 × 8
#>    ARM   variable_level context stat_variable stat_name stat_label    stat label
#>    <chr> <chr>          <chr>   <chr>         <chr>     <chr>        <dbl> <chr>
#>  1 Plac… >64            catego… AGEGR1        p         %           0.837  >64  
#>  2 Plac… 18-64          catego… AGEGR1        p         %           0.163  18-64
#>  3 Plac… Overall AGE    contin… AGE           mean      Mean       75.2    Mean 
#>  4 Plac… Overall AGE    contin… AGE           sd        SD          8.59   SD   
#>  5 Xano… >64            catego… AGEGR1        p         %           0.869  >64  
#>  6 Xano… 18-64          catego… AGEGR1        p         %           0.131  18-64
#>  7 Xano… Overall AGE    contin… AGE           mean      Mean       74.4    Mean 
#>  8 Xano… Overall AGE    contin… AGE           sd        SD          7.89   SD   
#>  9 Xano… >64            catego… AGEGR1        p         %           0.905  >64  
#> 10 Xano… 18-64          catego… AGEGR1        p         %           0.0952 18-64
#> # ℹ 11 more rows
```
…
Like the demog table example, the first step in preparing the data for
{tfrmt} is calling
[`shuffle_card()`](https://gsk-biostatistics.github.io/tfrmt/dev/reference/shuffle_card.md)
which performs general operations to get the results in a tidy data
frame without list-columns and extra metadata.

``` r
ard_ae_shuffled <- ard_ae |>
  shuffle_card()

ard_ae_shuffled
#> # A tibble: 57 × 8
#>    ARM          AESOC AEDECOD context stat_variable stat_name stat_label    stat
#>    <chr>        <chr> <chr>   <chr>   <chr>         <chr>     <chr>        <dbl>
#>  1 Placebo      NA    NA      tabula… ARM           n         n           86    
#>  2 Placebo      NA    NA      tabula… ARM           N         N          254    
#>  3 Placebo      NA    NA      tabula… ARM           p         %            0.339
#>  4 Xanomeline … NA    NA      tabula… ARM           n         n           84    
#>  5 Xanomeline … NA    NA      tabula… ARM           N         N          254    
#>  6 Xanomeline … NA    NA      tabula… ARM           p         %            0.331
#>  7 Xanomeline … NA    NA      tabula… ARM           n         n           84    
#>  8 Xanomeline … NA    NA      tabula… ARM           N         N          254    
#>  9 Xanomeline … NA    NA      tabula… ARM           p         %            0.331
#> 10 Placebo      GAST… NA      hierar… AESOC         n         n           12    
#> # ℹ 47 more rows
```
…
Commonly we only want to display the `n` in the column headers for
treatment group. To distinguish these as big N’s, we need to relabel the
stat, and drop the unnecessary `N` and `p`. The
[`prep_big_n()`](https://gsk-biostatistics.github.io/tfrmt/dev/reference/prep_big_n.md)
helper takes care of this for us:

``` r
ard_ae_shuffled <- ard_ae_shuffled |>
  prep_big_n(vars = "ARM") # the grouping variable we want to prepare big N's for

ard_ae_shuffled
#> # A tibble: 51 × 8
#>    ARM           AESOC AEDECOD context stat_variable stat_name stat_label   stat
#>    <chr>         <chr> <chr>   <chr>   <chr>         <chr>     <chr>       <dbl>
#>  1 Placebo       NA    NA      tabula… ARM           bigN      n          86    
#>  2 Xanomeline H… NA    NA      tabula… ARM           bigN      n          84    
#>  3 Xanomeline L… NA    NA      tabula… ARM           bigN      n          84    
#>  4 Placebo       GAST… GASTRO… hierar… AESOC         n         n          12    
#>  5 Placebo       GAST… GASTRO… hierar… AESOC         p         %           0.140
#>  6 Placebo       GENE… GENERA… hierar… AESOC         n         n           9    
#>  7 Placebo       GENE… GENERA… hierar… AESOC         p         %           0.105
#>  8 Placebo       GAST… DIARRH… hierar… AEDECOD       n         n           9    
#>  9 Placebo       GAST… DIARRH… hierar… AEDECOD       p         %           0.105
#> 10 Placebo       GAST… HIATUS… hierar… AEDECOD       n         n           1    
#> # ℹ 41 more rows
```

Finally, we can do any additional table-specific manipulations and we’re
ready for our tfrmt!

``` r
ard_final <- ard_ae_shuffled |>
  # drop uneeded variables
  dplyr::select(-c(context, stat_label, stat_variable))

ard_final
#> # A tibble: 51 × 5
#>    ARM                  AESOC                           AEDECOD stat_name   stat
#>    <chr>                <chr>                           <chr>   <chr>      <dbl>
#>  1 Placebo              NA                              NA      bigN      86    
#>  2 Xanomeline High Dose NA                              NA      bigN      84    
#>  3 Xanomeline Low Dose  NA                              NA      bigN      84    
#>  4 Placebo              GASTROINTESTINAL DISORDERS      GASTRO… n         12    
#>  5 Placebo              GASTROINTESTINAL DISORDERS      GASTRO… p          0.140
#>  6 Placebo              GENERAL DISORDERS AND ADMINIST… GENERA… n          9    
#>  7 Placebo              GENERAL DISORDERS AND ADMINIST… GENERA… p          0.105
#>  8 Placebo              GASTROINTESTINAL DISORDERS      DIARRH… n          9    
#>  9 Placebo              GASTROINTESTINAL DISORDERS      DIARRH… p          0.105
#> 10 Placebo              GASTROINTESTINAL DISORDERS      HIATUS… n          1    
#> # ℹ 41 more rows
```
…
