Big N's • tfrmt
…
data <- tibble(Group = rep(c("Age (y)", "Sex", "Age (y)", "Sex"), c(3, 3, 6,12)),
               Label = rep(c("n", "Mean (SD)", "Male","Female"), c(6, 6,6,6)),
               Column = rep(c("Placebo", "Treatment", "Total"), times = 8),
               Param = rep(c("n", "mean", "sd", "n", "pct", "n", "pct"),  c(6, 3, 3, 3,3,3,3)),
               Value = c(15,13,28,14,13,27,73.56, 74.231,71.84,9.347,7.234,8.293,8,7,15,8/14,7/13,15/27,6,6,12,6/14,6/13,12/27
               )
) %>%
  # Note because tfrmt only does rounding we will need to have the percents multiplied by 100
  mutate(Value = case_when(Param == "pct" ~ Value * 100,
                           TRUE ~ Value),
         ord1 = if_else(Group == "Age (y)", 1, 2),
         ord2 = if_else(Label == "n", 1, 2))
data
#> # A tibble: 24 × 7
#>    Group   Label     Column    Param Value  ord1  ord2
#>    <chr>   <chr>     <chr>     <chr> <dbl> <dbl> <dbl>
#>  1 Age (y) n         Placebo   n     15        1     1
#>  2 Age (y) n         Treatment n     13        1     1
#>  3 Age (y) n         Total     n     28        1     1
#>  4 Sex     n         Placebo   n     14        2     1
#>  5 Sex     n         Treatment n     13        2     1
#>  6 Sex     n         Total     n     27        2     1
#>  7 Age (y) Mean (SD) Placebo   mean  73.6      1     2
#>  8 Age (y) Mean (SD) Treatment mean  74.2      1     2
#>  9 Age (y) Mean (SD) Total     mean  71.8      1     2
#> 10 Age (y) Mean (SD) Placebo   sd     9.35     1     2
#> # ℹ 14 more rows
…
