Building Mocks • tfrmt
…
If you would like to add a little more customisation by supplying your own mock data you can utilise the crossing() function from the tidyr package. You may also wish to add an integer column specifying order layer for complex tables.

Here is an example:

df <- crossing(label = c("label 1", "label 2", "label 3"),
               column = c("trt1", "trt2", "trt1&trt2", "pl"),
               param = c("count", "percent")) %>%
  # Assign numerical order (optional - keep if using `sorting_cols` parameter)
  mutate(ord1 = rep(seq(1:length(unique(.$label))), each = nrow(.)/length(unique(.$label)) ))

df
#> # A tibble: 24 × 4
#>    label   column    param    ord1
#>    <chr>   <chr>     <chr>   <int>
#>  1 label 1 pl        count       1
#>  2 label 1 pl        percent     1
#>  3 label 1 trt1      count       1
#>  4 label 1 trt1      percent     1
#>  5 label 1 trt1&trt2 count       1
#>  6 label 1 trt1&trt2 percent     1
#>  7 label 1 trt2      count       1
#>  8 label 1 trt2      percent     1
#>  9 label 2 pl        count       2
#> 10 label 2 pl        percent     2
#> # … with 14 more rows
…
Different value formatting between columns

Here we have used the crossing() function twice with differing columns and bound them using bind_rows().

df <- bind_rows(
  crossing(label = c("label 1", "label 2", "label 3"),
           column = c("T1", "T2", "PL"),
           param = c("count", "percent")),
  crossing(label = c("label 1", "label 2", "label 3"),
           column = c("Risk Diff T1-PL", "Risk Diff T2-PL"),
           param = c("num", "lower", "upper"))) %>%
  arrange_all()

df
#> # A tibble: 36 × 3
#>    label   column          param  
#>    <chr>   <chr>           <chr>  
#>  1 label 1 PL              count  
#>  2 label 1 PL              percent
#>  3 label 1 Risk Diff T1-PL lower  
#>  4 label 1 Risk Diff T1-PL num    
#>  5 label 1 Risk Diff T1-PL upper  
#>  6 label 1 Risk Diff T2-PL lower  
#>  7 label 1 Risk Diff T2-PL num    
#>  8 label 1 Risk Diff T2-PL upper  
#>  9 label 1 T1              count  
#> 10 label 1 T1              percent
#> # … with 26 more rows
…
