…
Here is an example:

``` r
df1 <- tidyr::crossing(
  label = c("label 1", "label 2", "label 3"),
  treatment = c("Treatment", "Treatment", "Treatment", "Placebo"),
  column = c("trt1", "trt2", "trt1&trt2", "pl"),
  param = c("count", "percent")
) 
df <- df1 |>
  # Assign numerical order (optional - keep if using `sorting_cols` parameter)
  dplyr::mutate(ord1 = rep(seq(1:length(unique(df1$label))), each = nrow(df1) / length(unique(df1$label))))

df
#> # A tibble: 48 × 5
#>    label   treatment column    param    ord1
#>    <chr>   <chr>     <chr>     <chr>   <int>
#>  1 label 1 Placebo   pl        count       1
#>  2 label 1 Placebo   pl        percent     1
#>  3 label 1 Placebo   trt1      count       1
#>  4 label 1 Placebo   trt1      percent     1
#>  5 label 1 Placebo   trt1&trt2 count       1
#>  6 label 1 Placebo   trt1&trt2 percent     1
#>  7 label 1 Placebo   trt2      count       1
#>  8 label 1 Placebo   trt2      percent     1
#>  9 label 1 Treatment pl        count       1
#> 10 label 1 Treatment pl        percent     1
#> # ℹ 38 more rows
```
…
df
#> # A tibble: 36 × 3
#>    label   column          param  
#>    <chr>   <chr>           <chr>  
#>  1 label 1 PL              count  
#>  2 label 1 PL              percent
#>  3 label 1 Risk Diff T1-PL lower  
#>  4 label 1 Risk Diff T1-PL num    
#>  5 label 1 Risk Diff T1-PL upper  
#>  6 label 1 Risk Diff T2-PL lower  
#>  7 label 1 Risk Diff T2-PL num    
#>  8 label 1 Risk Diff T2-PL upper  
#>  9 label 1 T1              count  
#> 10 label 1 T1              percent
#> # ℹ 26 more rows
```
…
